
________                             _____                       .__                    ____. _________
\______ \   ____   _____   ____     /  _  \   ____    ____  __ __|  | _____ _______    |    |/   _____/
 |    |  \_/ __ \ /     \ /  _ \   /  /_\  \ /    \  / ___\|  |  \  | \__  \\_  __ \   |    |\_____  \ 
 |    `   \  ___/|  Y Y  (  <_> ) /    |    \   |  \/ /_/  >  |  /  |__/ __ \|  | \/\__|    |/        \
/_______  /\___  >__|_|  /\____/  \____|__  /___|  /\___  /|____/|____(____  /__|  \________/_______  /
        \/     \/      \/                 \/     \//_____/                 \/                       \/ 
